<svg xmlns="http://www.w3.org/2000/svg" width="11.587" height="14.962" viewBox="0 0 11.587 14.962">
  <path id="Path_272" data-name="Path 272" d="M95.238,68.78H93.7v.792a.518.518,0,0,1-.484.522.509.509,0,0,1-.534-.508V68.78H90.462v.806a.509.509,0,1,1-1.017,0V68.78H87.219v.806a.509.509,0,0,1-.534.508.518.518,0,0,1-.484-.522V68.78H84.669a.509.509,0,0,0-.509.509V83.234a.509.509,0,0,0,.509.509H95.238a.509.509,0,0,0,.509-.509V69.289A.509.509,0,0,0,95.238,68.78ZM93.2,80.534H86.711a.509.509,0,0,1,0-1.017H93.2a.509.509,0,0,1,0,1.017Zm0-3.253H86.711a.509.509,0,1,1,0-1.017H93.2a.509.509,0,1,1,0,1.017Zm0-3.252H86.711a.509.509,0,0,1,0-1.017H93.2a.509.509,0,0,1,0,1.017Z" transform="translate(-84.16 -68.78)" fill="#c1181f"/>
</svg>
