<svg xmlns="http://www.w3.org/2000/svg" width="19.463" height="14.872" viewBox="0 0 19.463 14.872">
  <path id="em" d="M17.27,0H2.193A2.194,2.194,0,0,0,0,2.193V12.679a2.194,2.194,0,0,0,2.193,2.193H17.27a2.194,2.194,0,0,0,2.193-2.193V2.193A2.194,2.194,0,0,0,17.27,0ZM9.733,8.948,1.428,3.872,2,2.935,9.715,7.65l8.147-5.3.6.92Z" fill="#fff"/>
</svg>
