<svg xmlns="http://www.w3.org/2000/svg" width="11.557" height="14.708" viewBox="0 0 11.557 14.708">
  <g id="play-arrow" transform="translate(-38.25)">
    <g id="play-arrow-2" data-name="play-arrow" transform="translate(38.25)">
      <path id="Path_276" data-name="Path 276" d="M38.25,0V14.709L49.807,7.354Z" transform="translate(-38.25)" fill="#405572"/>
    </g>
  </g>
</svg>
